// Jest Snapshot v1, https://goo.gl/fbAQLP

exports[`(Component) ApplicationDescription renders correctly 1`] = `
ShallowWrapper {
  "length": 1,
  Symbol(enzyme.__root__): [Circular],
  Symbol(enzyme.__unrendered__): <ApplicationDescription />,
  Symbol(enzyme.__renderer__): Object {
    "batchedUpdates": [Function],
    "getNode": [Function],
    "render": [Function],
    "simulateEvent": [Function],
    "unmount": [Function],
  },
  Symbol(enzyme.__node__): Object {
    "instance": null,
    "key": undefined,
    "nodeType": "host",
    "props": Object {
      "children": Array [
        <div
          className="row"
        >
          <div
            className="col-md-12"
          >
            <h4
              className="withTopMargin"
            >
              Do you want to skip the lottery and get a secured spot for SoCraTes? Become a 
              <Link
                replace={false}
                to="/sponsoring"
              >
                sponsor
              </Link>
              .
            </h4>
          </div>
        </div>,
        <div
          className="row"
          id="registration-accordion"
        >
          <div
            className="col-md-6"
          >
            <Accordion
              entries={
                Array [
                  Object {
                    "content": <div>
                      <p>
                        The tickets will be given out in a lottery.
                      </p>
                      <p>
                        The registration opens on April 15th, 2019. To avoid "rush hour" traffic, all registrations (except for guaranteed sponsor slots) will end up on the waiting list, initially. It will not matter, if you register on the first day, or on the last. On May 1st, 2019 there will be a draw to distribute the slots to people on the waiting list.
                      </p>
                      <p>
                        Please note that the draw will be (pseudo) random, and we will not influence the results in any way.
                      </p>
                      <p>
                        After the draw, you will be notified, if you are in.
                      </p>
                      <p>
                        If you are not, you stay on the waiting list (as was previous practice). But don’t give up just yet: Cancellations and other issues always cause some slots to become available again, and we will draw those away at regular intervals.
                      </p>
                    </div>,
                    "title": "How it works",
                  },
                  Object {
                    "content": <div>
                      <p>
                        We offer three kinds of rooms. Please choose the rooms you'd like and tell us for how long you will be our guest. All rooms need to be booked from Thursday evening. There will be no exceptions.
                      </p>
                      <ul>
                        <li>
                          Single bed room
                        </li>
                        <li>
                          Double bed room, can only be shared
                        </li>
                        <li>
                          Junior double bed room (one bed, 160 cm x 200 cm), can be shared or occupied exclusively
                        </li>
                      </ul>
                      <p>
                        If you stay at least until Sunday evening, we assume that you want to participate in the Coderetreat or in one of the workshops on Sunday.
                      </p>
                      <p>
                        All prices are per person and include:
                      </p>
                      <ul>
                        <li>
                          participation in the SoCraTes conference (including the Sunday Coderetreat or workshop, if you like) 
                        </li>
                        <li>
                          the hotel room
                        </li>
                        <li>
                          meals, snacks and coffee
                        </li>
                      </ul>
                      <p>
                        The final prices depend on our sponsors and may be slightly lower than announced here.
                      </p>
                    </div>,
                    "title": "Room Options",
                  },
                  Object {
                    "content": <div>
                      <p>
                        You can select as many rooms as you like.
                      </p>
                      <p>
                        If you select more than one room this means you are happy with any of the rooms you selected. We will move you to one of the rooms, as they become available.
                      </p>
                      <p>
                        Generally speaking: The more room options you select, the better your chances are to get a spot.
                      </p>
                      <p>
                        Please be aware that we will move you to the next available room without checking back with you first. So please select only those rooms you are happy with!
                      </p>
                    </div>,
                    "title": "Room Choice",
                  },
                ]
              }
              parentId="registration-accordion"
            />
          </div>
          <div
            className="col-md-6"
          >
            <Accordion
              entries={
                Array [
                  Object {
                    "content": <div>
                      <p>
                        You will pay the full amount (as given below) to the venue on checkout, and you will receive an invoice from the venue.
                      </p>
                      <p>
                        The final amount will include food, group rooms and free non-alcoholic drinks, plus the hotel service fee for the conference - at most 202,50€, if you stay from Thursday until Sunday (all of which will be covered by sponsoring money, if possible) - as well as your hotel room (see pricing table below).
                      </p>
                      <p>
                        To give you an example: The price for a single room for all 3 nights will be somewhere between roughly 200€ and 400€, with a high likelihood of being closer to the lower end.
                      </p>
                      <table
                        className="pricing"
                      >
                        <thead>
                          <tr>
                            <th>
                              Room type
                            </th>
                            <th>
                              Price p. person/night
                            </th>
                          </tr>
                        </thead>
                        <tbody>
                          <tr>
                            <td>
                              Single
                            </td>
                            <td
                              className="numeric"
                            >
                              62,50€
                            </td>
                          </tr>
                          <tr>
                            <td>
                              Junior Double (exclusively)
                            </td>
                            <td
                              className="numeric"
                            >
                              62,50€
                            </td>
                          </tr>
                          <tr>
                            <td>
                              Double (shared)
                            </td>
                            <td
                              className="numeric"
                            >
                              47,95€
                            </td>
                          </tr>
                          <tr>
                            <td>
                              Junior Double (shared)
                            </td>
                            <td
                              className="numeric"
                            >
                              45,45€
                            </td>
                          </tr>
                        </tbody>
                      </table>
                    </div>,
                    "title": "Payment and Invoice",
                  },
                  Object {
                    "content": <div>
                      <p>
                        Some of you have booked a spot in a double shared, or junior shared room. Now is the time to specify your desired roommate. Please do so as soon as possible.
                      </p>
                      <p>
                        All those who do not choose a roommate until the end of July 2019 will be assigned one. We will usually fill the spot with someone matching your own gender, unless you told us to do otherwise, and of course providing enough matching pairs exist. However the draw turns out, though, we want you to be sure that there is no way we will force you to share the room with someone you dislike or have doubts about - please contact us, if this should be the case, and we will try our best to find a mutually agreeable solution.
                      </p>
                      <p>
                        Please verify the duration of your stay. If anything needs to be changed, send an email to registration@socrates-conference.de, along with your desired changes.
                      </p>
                      <p>
                        To book until Sunday evening means participation in the workshops or code retreat - as sponsorship money is being used to make this possible, please be fair and do not unnecessarily specify the Sunday evening, unless you want to participate in these activities.
                      </p>
                      <p>
                        Specify the correct size of your SoCraTes t-shirt in your profile. Check and change this setting, if necessary. If you don’t want a t-shirt, please select the “no shirt” option.
                      </p>
                      <p>
                        Also check your home and billing addresses in the profile page. Also, you may tell us about your food preferences / dietary restrictions, whether you have any special needs, or any other information you want to share with us.
                      </p>
                      <p>
                        Please make sure that your profile fields are up to date.
                      </p>
                    </div>,
                    "title": "I won the lottery, what now?",
                  },
                ]
              }
              parentId="registration-accordion"
              startIndex={3}
            />
          </div>
        </div>,
      ],
    },
    "ref": null,
    "rendered": Array [
      Object {
        "instance": null,
        "key": undefined,
        "nodeType": "host",
        "props": Object {
          "children": <div
            className="col-md-12"
          >
            <h4
              className="withTopMargin"
            >
              Do you want to skip the lottery and get a secured spot for SoCraTes? Become a 
              <Link
                replace={false}
                to="/sponsoring"
              >
                sponsor
              </Link>
              .
            </h4>
          </div>,
          "className": "row",
        },
        "ref": null,
        "rendered": Object {
          "instance": null,
          "key": undefined,
          "nodeType": "host",
          "props": Object {
            "children": <h4
              className="withTopMargin"
            >
              Do you want to skip the lottery and get a secured spot for SoCraTes? Become a 
              <Link
                replace={false}
                to="/sponsoring"
              >
                sponsor
              </Link>
              .
            </h4>,
            "className": "col-md-12",
          },
          "ref": null,
          "rendered": Object {
            "instance": null,
            "key": undefined,
            "nodeType": "host",
            "props": Object {
              "children": Array [
                "Do you want to skip the lottery and get a secured spot for SoCraTes? Become a ",
                <Link
                  replace={false}
                  to="/sponsoring"
                >
                  sponsor
                </Link>,
                ".",
              ],
              "className": "withTopMargin",
            },
            "ref": null,
            "rendered": Array [
              "Do you want to skip the lottery and get a secured spot for SoCraTes? Become a ",
              Object {
                "instance": null,
                "key": undefined,
                "nodeType": "class",
                "props": Object {
                  "children": "sponsor",
                  "replace": false,
                  "to": "/sponsoring",
                },
                "ref": null,
                "rendered": "sponsor",
                "type": [Function],
              },
              ".",
            ],
            "type": "h4",
          },
          "type": "div",
        },
        "type": "div",
      },
      Object {
        "instance": null,
        "key": undefined,
        "nodeType": "host",
        "props": Object {
          "children": Array [
            <div
              className="col-md-6"
            >
              <Accordion
                entries={
                  Array [
                    Object {
                      "content": <div>
                        <p>
                          The tickets will be given out in a lottery.
                        </p>
                        <p>
                          The registration opens on April 15th, 2019. To avoid "rush hour" traffic, all registrations (except for guaranteed sponsor slots) will end up on the waiting list, initially. It will not matter, if you register on the first day, or on the last. On May 1st, 2019 there will be a draw to distribute the slots to people on the waiting list.
                        </p>
                        <p>
                          Please note that the draw will be (pseudo) random, and we will not influence the results in any way.
                        </p>
                        <p>
                          After the draw, you will be notified, if you are in.
                        </p>
                        <p>
                          If you are not, you stay on the waiting list (as was previous practice). But don’t give up just yet: Cancellations and other issues always cause some slots to become available again, and we will draw those away at regular intervals.
                        </p>
                      </div>,
                      "title": "How it works",
                    },
                    Object {
                      "content": <div>
                        <p>
                          We offer three kinds of rooms. Please choose the rooms you'd like and tell us for how long you will be our guest. All rooms need to be booked from Thursday evening. There will be no exceptions.
                        </p>
                        <ul>
                          <li>
                            Single bed room
                          </li>
                          <li>
                            Double bed room, can only be shared
                          </li>
                          <li>
                            Junior double bed room (one bed, 160 cm x 200 cm), can be shared or occupied exclusively
                          </li>
                        </ul>
                        <p>
                          If you stay at least until Sunday evening, we assume that you want to participate in the Coderetreat or in one of the workshops on Sunday.
                        </p>
                        <p>
                          All prices are per person and include:
                        </p>
                        <ul>
                          <li>
                            participation in the SoCraTes conference (including the Sunday Coderetreat or workshop, if you like) 
                          </li>
                          <li>
                            the hotel room
                          </li>
                          <li>
                            meals, snacks and coffee
                          </li>
                        </ul>
                        <p>
                          The final prices depend on our sponsors and may be slightly lower than announced here.
                        </p>
                      </div>,
                      "title": "Room Options",
                    },
                    Object {
                      "content": <div>
                        <p>
                          You can select as many rooms as you like.
                        </p>
                        <p>
                          If you select more than one room this means you are happy with any of the rooms you selected. We will move you to one of the rooms, as they become available.
                        </p>
                        <p>
                          Generally speaking: The more room options you select, the better your chances are to get a spot.
                        </p>
                        <p>
                          Please be aware that we will move you to the next available room without checking back with you first. So please select only those rooms you are happy with!
                        </p>
                      </div>,
                      "title": "Room Choice",
                    },
                  ]
                }
                parentId="registration-accordion"
              />
            </div>,
            <div
              className="col-md-6"
            >
              <Accordion
                entries={
                  Array [
                    Object {
                      "content": <div>
                        <p>
                          You will pay the full amount (as given below) to the venue on checkout, and you will receive an invoice from the venue.
                        </p>
                        <p>
                          The final amount will include food, group rooms and free non-alcoholic drinks, plus the hotel service fee for the conference - at most 202,50€, if you stay from Thursday until Sunday (all of which will be covered by sponsoring money, if possible) - as well as your hotel room (see pricing table below).
                        </p>
                        <p>
                          To give you an example: The price for a single room for all 3 nights will be somewhere between roughly 200€ and 400€, with a high likelihood of being closer to the lower end.
                        </p>
                        <table
                          className="pricing"
                        >
                          <thead>
                            <tr>
                              <th>
                                Room type
                              </th>
                              <th>
                                Price p. person/night
                              </th>
                            </tr>
                          </thead>
                          <tbody>
                            <tr>
                              <td>
                                Single
                              </td>
                              <td
                                className="numeric"
                              >
                                62,50€
                              </td>
                            </tr>
                            <tr>
                              <td>
                                Junior Double (exclusively)
                              </td>
                              <td
                                className="numeric"
                              >
                                62,50€
                              </td>
                            </tr>
                            <tr>
                              <td>
                                Double (shared)
                              </td>
                              <td
                                className="numeric"
                              >
                                47,95€
                              </td>
                            </tr>
                            <tr>
                              <td>
                                Junior Double (shared)
                              </td>
                              <td
                                className="numeric"
                              >
                                45,45€
                              </td>
                            </tr>
                          </tbody>
                        </table>
                      </div>,
                      "title": "Payment and Invoice",
                    },
                    Object {
                      "content": <div>
                        <p>
                          Some of you have booked a spot in a double shared, or junior shared room. Now is the time to specify your desired roommate. Please do so as soon as possible.
                        </p>
                        <p>
                          All those who do not choose a roommate until the end of July 2019 will be assigned one. We will usually fill the spot with someone matching your own gender, unless you told us to do otherwise, and of course providing enough matching pairs exist. However the draw turns out, though, we want you to be sure that there is no way we will force you to share the room with someone you dislike or have doubts about - please contact us, if this should be the case, and we will try our best to find a mutually agreeable solution.
                        </p>
                        <p>
                          Please verify the duration of your stay. If anything needs to be changed, send an email to registration@socrates-conference.de, along with your desired changes.
                        </p>
                        <p>
                          To book until Sunday evening means participation in the workshops or code retreat - as sponsorship money is being used to make this possible, please be fair and do not unnecessarily specify the Sunday evening, unless you want to participate in these activities.
                        </p>
                        <p>
                          Specify the correct size of your SoCraTes t-shirt in your profile. Check and change this setting, if necessary. If you don’t want a t-shirt, please select the “no shirt” option.
                        </p>
                        <p>
                          Also check your home and billing addresses in the profile page. Also, you may tell us about your food preferences / dietary restrictions, whether you have any special needs, or any other information you want to share with us.
                        </p>
                        <p>
                          Please make sure that your profile fields are up to date.
                        </p>
                      </div>,
                      "title": "I won the lottery, what now?",
                    },
                  ]
                }
                parentId="registration-accordion"
                startIndex={3}
              />
            </div>,
          ],
          "className": "row",
          "id": "registration-accordion",
        },
        "ref": null,
        "rendered": Array [
          Object {
            "instance": null,
            "key": undefined,
            "nodeType": "host",
            "props": Object {
              "children": <Accordion
                entries={
                  Array [
                    Object {
                      "content": <div>
                        <p>
                          The tickets will be given out in a lottery.
                        </p>
                        <p>
                          The registration opens on April 15th, 2019. To avoid "rush hour" traffic, all registrations (except for guaranteed sponsor slots) will end up on the waiting list, initially. It will not matter, if you register on the first day, or on the last. On May 1st, 2019 there will be a draw to distribute the slots to people on the waiting list.
                        </p>
                        <p>
                          Please note that the draw will be (pseudo) random, and we will not influence the results in any way.
                        </p>
                        <p>
                          After the draw, you will be notified, if you are in.
                        </p>
                        <p>
                          If you are not, you stay on the waiting list (as was previous practice). But don’t give up just yet: Cancellations and other issues always cause some slots to become available again, and we will draw those away at regular intervals.
                        </p>
                      </div>,
                      "title": "How it works",
                    },
                    Object {
                      "content": <div>
                        <p>
                          We offer three kinds of rooms. Please choose the rooms you'd like and tell us for how long you will be our guest. All rooms need to be booked from Thursday evening. There will be no exceptions.
                        </p>
                        <ul>
                          <li>
                            Single bed room
                          </li>
                          <li>
                            Double bed room, can only be shared
                          </li>
                          <li>
                            Junior double bed room (one bed, 160 cm x 200 cm), can be shared or occupied exclusively
                          </li>
                        </ul>
                        <p>
                          If you stay at least until Sunday evening, we assume that you want to participate in the Coderetreat or in one of the workshops on Sunday.
                        </p>
                        <p>
                          All prices are per person and include:
                        </p>
                        <ul>
                          <li>
                            participation in the SoCraTes conference (including the Sunday Coderetreat or workshop, if you like) 
                          </li>
                          <li>
                            the hotel room
                          </li>
                          <li>
                            meals, snacks and coffee
                          </li>
                        </ul>
                        <p>
                          The final prices depend on our sponsors and may be slightly lower than announced here.
                        </p>
                      </div>,
                      "title": "Room Options",
                    },
                    Object {
                      "content": <div>
                        <p>
                          You can select as many rooms as you like.
                        </p>
                        <p>
                          If you select more than one room this means you are happy with any of the rooms you selected. We will move you to one of the rooms, as they become available.
                        </p>
                        <p>
                          Generally speaking: The more room options you select, the better your chances are to get a spot.
                        </p>
                        <p>
                          Please be aware that we will move you to the next available room without checking back with you first. So please select only those rooms you are happy with!
                        </p>
                      </div>,
                      "title": "Room Choice",
                    },
                  ]
                }
                parentId="registration-accordion"
              />,
              "className": "col-md-6",
            },
            "ref": null,
            "rendered": Object {
              "instance": null,
              "key": undefined,
              "nodeType": "function",
              "props": Object {
                "entries": Array [
                  Object {
                    "content": <div>
                      <p>
                        The tickets will be given out in a lottery.
                      </p>
                      <p>
                        The registration opens on April 15th, 2019. To avoid "rush hour" traffic, all registrations (except for guaranteed sponsor slots) will end up on the waiting list, initially. It will not matter, if you register on the first day, or on the last. On May 1st, 2019 there will be a draw to distribute the slots to people on the waiting list.
                      </p>
                      <p>
                        Please note that the draw will be (pseudo) random, and we will not influence the results in any way.
                      </p>
                      <p>
                        After the draw, you will be notified, if you are in.
                      </p>
                      <p>
                        If you are not, you stay on the waiting list (as was previous practice). But don’t give up just yet: Cancellations and other issues always cause some slots to become available again, and we will draw those away at regular intervals.
                      </p>
                    </div>,
                    "title": "How it works",
                  },
                  Object {
                    "content": <div>
                      <p>
                        We offer three kinds of rooms. Please choose the rooms you'd like and tell us for how long you will be our guest. All rooms need to be booked from Thursday evening. There will be no exceptions.
                      </p>
                      <ul>
                        <li>
                          Single bed room
                        </li>
                        <li>
                          Double bed room, can only be shared
                        </li>
                        <li>
                          Junior double bed room (one bed, 160 cm x 200 cm), can be shared or occupied exclusively
                        </li>
                      </ul>
                      <p>
                        If you stay at least until Sunday evening, we assume that you want to participate in the Coderetreat or in one of the workshops on Sunday.
                      </p>
                      <p>
                        All prices are per person and include:
                      </p>
                      <ul>
                        <li>
                          participation in the SoCraTes conference (including the Sunday Coderetreat or workshop, if you like) 
                        </li>
                        <li>
                          the hotel room
                        </li>
                        <li>
                          meals, snacks and coffee
                        </li>
                      </ul>
                      <p>
                        The final prices depend on our sponsors and may be slightly lower than announced here.
                      </p>
                    </div>,
                    "title": "Room Options",
                  },
                  Object {
                    "content": <div>
                      <p>
                        You can select as many rooms as you like.
                      </p>
                      <p>
                        If you select more than one room this means you are happy with any of the rooms you selected. We will move you to one of the rooms, as they become available.
                      </p>
                      <p>
                        Generally speaking: The more room options you select, the better your chances are to get a spot.
                      </p>
                      <p>
                        Please be aware that we will move you to the next available room without checking back with you first. So please select only those rooms you are happy with!
                      </p>
                    </div>,
                    "title": "Room Choice",
                  },
                ],
                "parentId": "registration-accordion",
              },
              "ref": null,
              "rendered": null,
              "type": [Function],
            },
            "type": "div",
          },
          Object {
            "instance": null,
            "key": undefined,
            "nodeType": "host",
            "props": Object {
              "children": <Accordion
                entries={
                  Array [
                    Object {
                      "content": <div>
                        <p>
                          You will pay the full amount (as given below) to the venue on checkout, and you will receive an invoice from the venue.
                        </p>
                        <p>
                          The final amount will include food, group rooms and free non-alcoholic drinks, plus the hotel service fee for the conference - at most 202,50€, if you stay from Thursday until Sunday (all of which will be covered by sponsoring money, if possible) - as well as your hotel room (see pricing table below).
                        </p>
                        <p>
                          To give you an example: The price for a single room for all 3 nights will be somewhere between roughly 200€ and 400€, with a high likelihood of being closer to the lower end.
                        </p>
                        <table
                          className="pricing"
                        >
                          <thead>
                            <tr>
                              <th>
                                Room type
                              </th>
                              <th>
                                Price p. person/night
                              </th>
                            </tr>
                          </thead>
                          <tbody>
                            <tr>
                              <td>
                                Single
                              </td>
                              <td
                                className="numeric"
                              >
                                62,50€
                              </td>
                            </tr>
                            <tr>
                              <td>
                                Junior Double (exclusively)
                              </td>
                              <td
                                className="numeric"
                              >
                                62,50€
                              </td>
                            </tr>
                            <tr>
                              <td>
                                Double (shared)
                              </td>
                              <td
                                className="numeric"
                              >
                                47,95€
                              </td>
                            </tr>
                            <tr>
                              <td>
                                Junior Double (shared)
                              </td>
                              <td
                                className="numeric"
                              >
                                45,45€
                              </td>
                            </tr>
                          </tbody>
                        </table>
                      </div>,
                      "title": "Payment and Invoice",
                    },
                    Object {
                      "content": <div>
                        <p>
                          Some of you have booked a spot in a double shared, or junior shared room. Now is the time to specify your desired roommate. Please do so as soon as possible.
                        </p>
                        <p>
                          All those who do not choose a roommate until the end of July 2019 will be assigned one. We will usually fill the spot with someone matching your own gender, unless you told us to do otherwise, and of course providing enough matching pairs exist. However the draw turns out, though, we want you to be sure that there is no way we will force you to share the room with someone you dislike or have doubts about - please contact us, if this should be the case, and we will try our best to find a mutually agreeable solution.
                        </p>
                        <p>
                          Please verify the duration of your stay. If anything needs to be changed, send an email to registration@socrates-conference.de, along with your desired changes.
                        </p>
                        <p>
                          To book until Sunday evening means participation in the workshops or code retreat - as sponsorship money is being used to make this possible, please be fair and do not unnecessarily specify the Sunday evening, unless you want to participate in these activities.
                        </p>
                        <p>
                          Specify the correct size of your SoCraTes t-shirt in your profile. Check and change this setting, if necessary. If you don’t want a t-shirt, please select the “no shirt” option.
                        </p>
                        <p>
                          Also check your home and billing addresses in the profile page. Also, you may tell us about your food preferences / dietary restrictions, whether you have any special needs, or any other information you want to share with us.
                        </p>
                        <p>
                          Please make sure that your profile fields are up to date.
                        </p>
                      </div>,
                      "title": "I won the lottery, what now?",
                    },
                  ]
                }
                parentId="registration-accordion"
                startIndex={3}
              />,
              "className": "col-md-6",
            },
            "ref": null,
            "rendered": Object {
              "instance": null,
              "key": undefined,
              "nodeType": "function",
              "props": Object {
                "entries": Array [
                  Object {
                    "content": <div>
                      <p>
                        You will pay the full amount (as given below) to the venue on checkout, and you will receive an invoice from the venue.
                      </p>
                      <p>
                        The final amount will include food, group rooms and free non-alcoholic drinks, plus the hotel service fee for the conference - at most 202,50€, if you stay from Thursday until Sunday (all of which will be covered by sponsoring money, if possible) - as well as your hotel room (see pricing table below).
                      </p>
                      <p>
                        To give you an example: The price for a single room for all 3 nights will be somewhere between roughly 200€ and 400€, with a high likelihood of being closer to the lower end.
                      </p>
                      <table
                        className="pricing"
                      >
                        <thead>
                          <tr>
                            <th>
                              Room type
                            </th>
                            <th>
                              Price p. person/night
                            </th>
                          </tr>
                        </thead>
                        <tbody>
                          <tr>
                            <td>
                              Single
                            </td>
                            <td
                              className="numeric"
                            >
                              62,50€
                            </td>
                          </tr>
                          <tr>
                            <td>
                              Junior Double (exclusively)
                            </td>
                            <td
                              className="numeric"
                            >
                              62,50€
                            </td>
                          </tr>
                          <tr>
                            <td>
                              Double (shared)
                            </td>
                            <td
                              className="numeric"
                            >
                              47,95€
                            </td>
                          </tr>
                          <tr>
                            <td>
                              Junior Double (shared)
                            </td>
                            <td
                              className="numeric"
                            >
                              45,45€
                            </td>
                          </tr>
                        </tbody>
                      </table>
                    </div>,
                    "title": "Payment and Invoice",
                  },
                  Object {
                    "content": <div>
                      <p>
                        Some of you have booked a spot in a double shared, or junior shared room. Now is the time to specify your desired roommate. Please do so as soon as possible.
                      </p>
                      <p>
                        All those who do not choose a roommate until the end of July 2019 will be assigned one. We will usually fill the spot with someone matching your own gender, unless you told us to do otherwise, and of course providing enough matching pairs exist. However the draw turns out, though, we want you to be sure that there is no way we will force you to share the room with someone you dislike or have doubts about - please contact us, if this should be the case, and we will try our best to find a mutually agreeable solution.
                      </p>
                      <p>
                        Please verify the duration of your stay. If anything needs to be changed, send an email to registration@socrates-conference.de, along with your desired changes.
                      </p>
                      <p>
                        To book until Sunday evening means participation in the workshops or code retreat - as sponsorship money is being used to make this possible, please be fair and do not unnecessarily specify the Sunday evening, unless you want to participate in these activities.
                      </p>
                      <p>
                        Specify the correct size of your SoCraTes t-shirt in your profile. Check and change this setting, if necessary. If you don’t want a t-shirt, please select the “no shirt” option.
                      </p>
                      <p>
                        Also check your home and billing addresses in the profile page. Also, you may tell us about your food preferences / dietary restrictions, whether you have any special needs, or any other information you want to share with us.
                      </p>
                      <p>
                        Please make sure that your profile fields are up to date.
                      </p>
                    </div>,
                    "title": "I won the lottery, what now?",
                  },
                ],
                "parentId": "registration-accordion",
                "startIndex": 3,
              },
              "ref": null,
              "rendered": null,
              "type": [Function],
            },
            "type": "div",
          },
        ],
        "type": "div",
      },
    ],
    "type": "div",
  },
  Symbol(enzyme.__nodes__): Array [
    Object {
      "instance": null,
      "key": undefined,
      "nodeType": "host",
      "props": Object {
        "children": Array [
          <div
            className="row"
          >
            <div
              className="col-md-12"
            >
              <h4
                className="withTopMargin"
              >
                Do you want to skip the lottery and get a secured spot for SoCraTes? Become a 
                <Link
                  replace={false}
                  to="/sponsoring"
                >
                  sponsor
                </Link>
                .
              </h4>
            </div>
          </div>,
          <div
            className="row"
            id="registration-accordion"
          >
            <div
              className="col-md-6"
            >
              <Accordion
                entries={
                  Array [
                    Object {
                      "content": <div>
                        <p>
                          The tickets will be given out in a lottery.
                        </p>
                        <p>
                          The registration opens on April 15th, 2019. To avoid "rush hour" traffic, all registrations (except for guaranteed sponsor slots) will end up on the waiting list, initially. It will not matter, if you register on the first day, or on the last. On May 1st, 2019 there will be a draw to distribute the slots to people on the waiting list.
                        </p>
                        <p>
                          Please note that the draw will be (pseudo) random, and we will not influence the results in any way.
                        </p>
                        <p>
                          After the draw, you will be notified, if you are in.
                        </p>
                        <p>
                          If you are not, you stay on the waiting list (as was previous practice). But don’t give up just yet: Cancellations and other issues always cause some slots to become available again, and we will draw those away at regular intervals.
                        </p>
                      </div>,
                      "title": "How it works",
                    },
                    Object {
                      "content": <div>
                        <p>
                          We offer three kinds of rooms. Please choose the rooms you'd like and tell us for how long you will be our guest. All rooms need to be booked from Thursday evening. There will be no exceptions.
                        </p>
                        <ul>
                          <li>
                            Single bed room
                          </li>
                          <li>
                            Double bed room, can only be shared
                          </li>
                          <li>
                            Junior double bed room (one bed, 160 cm x 200 cm), can be shared or occupied exclusively
                          </li>
                        </ul>
                        <p>
                          If you stay at least until Sunday evening, we assume that you want to participate in the Coderetreat or in one of the workshops on Sunday.
                        </p>
                        <p>
                          All prices are per person and include:
                        </p>
                        <ul>
                          <li>
                            participation in the SoCraTes conference (including the Sunday Coderetreat or workshop, if you like) 
                          </li>
                          <li>
                            the hotel room
                          </li>
                          <li>
                            meals, snacks and coffee
                          </li>
                        </ul>
                        <p>
                          The final prices depend on our sponsors and may be slightly lower than announced here.
                        </p>
                      </div>,
                      "title": "Room Options",
                    },
                    Object {
                      "content": <div>
                        <p>
                          You can select as many rooms as you like.
                        </p>
                        <p>
                          If you select more than one room this means you are happy with any of the rooms you selected. We will move you to one of the rooms, as they become available.
                        </p>
                        <p>
                          Generally speaking: The more room options you select, the better your chances are to get a spot.
                        </p>
                        <p>
                          Please be aware that we will move you to the next available room without checking back with you first. So please select only those rooms you are happy with!
                        </p>
                      </div>,
                      "title": "Room Choice",
                    },
                  ]
                }
                parentId="registration-accordion"
              />
            </div>
            <div
              className="col-md-6"
            >
              <Accordion
                entries={
                  Array [
                    Object {
                      "content": <div>
                        <p>
                          You will pay the full amount (as given below) to the venue on checkout, and you will receive an invoice from the venue.
                        </p>
                        <p>
                          The final amount will include food, group rooms and free non-alcoholic drinks, plus the hotel service fee for the conference - at most 202,50€, if you stay from Thursday until Sunday (all of which will be covered by sponsoring money, if possible) - as well as your hotel room (see pricing table below).
                        </p>
                        <p>
                          To give you an example: The price for a single room for all 3 nights will be somewhere between roughly 200€ and 400€, with a high likelihood of being closer to the lower end.
                        </p>
                        <table
                          className="pricing"
                        >
                          <thead>
                            <tr>
                              <th>
                                Room type
                              </th>
                              <th>
                                Price p. person/night
                              </th>
                            </tr>
                          </thead>
                          <tbody>
                            <tr>
                              <td>
                                Single
                              </td>
                              <td
                                className="numeric"
                              >
                                62,50€
                              </td>
                            </tr>
                            <tr>
                              <td>
                                Junior Double (exclusively)
                              </td>
                              <td
                                className="numeric"
                              >
                                62,50€
                              </td>
                            </tr>
                            <tr>
                              <td>
                                Double (shared)
                              </td>
                              <td
                                className="numeric"
                              >
                                47,95€
                              </td>
                            </tr>
                            <tr>
                              <td>
                                Junior Double (shared)
                              </td>
                              <td
                                className="numeric"
                              >
                                45,45€
                              </td>
                            </tr>
                          </tbody>
                        </table>
                      </div>,
                      "title": "Payment and Invoice",
                    },
                    Object {
                      "content": <div>
                        <p>
                          Some of you have booked a spot in a double shared, or junior shared room. Now is the time to specify your desired roommate. Please do so as soon as possible.
                        </p>
                        <p>
                          All those who do not choose a roommate until the end of July 2019 will be assigned one. We will usually fill the spot with someone matching your own gender, unless you told us to do otherwise, and of course providing enough matching pairs exist. However the draw turns out, though, we want you to be sure that there is no way we will force you to share the room with someone you dislike or have doubts about - please contact us, if this should be the case, and we will try our best to find a mutually agreeable solution.
                        </p>
                        <p>
                          Please verify the duration of your stay. If anything needs to be changed, send an email to registration@socrates-conference.de, along with your desired changes.
                        </p>
                        <p>
                          To book until Sunday evening means participation in the workshops or code retreat - as sponsorship money is being used to make this possible, please be fair and do not unnecessarily specify the Sunday evening, unless you want to participate in these activities.
                        </p>
                        <p>
                          Specify the correct size of your SoCraTes t-shirt in your profile. Check and change this setting, if necessary. If you don’t want a t-shirt, please select the “no shirt” option.
                        </p>
                        <p>
                          Also check your home and billing addresses in the profile page. Also, you may tell us about your food preferences / dietary restrictions, whether you have any special needs, or any other information you want to share with us.
                        </p>
                        <p>
                          Please make sure that your profile fields are up to date.
                        </p>
                      </div>,
                      "title": "I won the lottery, what now?",
                    },
                  ]
                }
                parentId="registration-accordion"
                startIndex={3}
              />
            </div>
          </div>,
        ],
      },
      "ref": null,
      "rendered": Array [
        Object {
          "instance": null,
          "key": undefined,
          "nodeType": "host",
          "props": Object {
            "children": <div
              className="col-md-12"
            >
              <h4
                className="withTopMargin"
              >
                Do you want to skip the lottery and get a secured spot for SoCraTes? Become a 
                <Link
                  replace={false}
                  to="/sponsoring"
                >
                  sponsor
                </Link>
                .
              </h4>
            </div>,
            "className": "row",
          },
          "ref": null,
          "rendered": Object {
            "instance": null,
            "key": undefined,
            "nodeType": "host",
            "props": Object {
              "children": <h4
                className="withTopMargin"
              >
                Do you want to skip the lottery and get a secured spot for SoCraTes? Become a 
                <Link
                  replace={false}
                  to="/sponsoring"
                >
                  sponsor
                </Link>
                .
              </h4>,
              "className": "col-md-12",
            },
            "ref": null,
            "rendered": Object {
              "instance": null,
              "key": undefined,
              "nodeType": "host",
              "props": Object {
                "children": Array [
                  "Do you want to skip the lottery and get a secured spot for SoCraTes? Become a ",
                  <Link
                    replace={false}
                    to="/sponsoring"
                  >
                    sponsor
                  </Link>,
                  ".",
                ],
                "className": "withTopMargin",
              },
              "ref": null,
              "rendered": Array [
                "Do you want to skip the lottery and get a secured spot for SoCraTes? Become a ",
                Object {
                  "instance": null,
                  "key": undefined,
                  "nodeType": "class",
                  "props": Object {
                    "children": "sponsor",
                    "replace": false,
                    "to": "/sponsoring",
                  },
                  "ref": null,
                  "rendered": "sponsor",
                  "type": [Function],
                },
                ".",
              ],
              "type": "h4",
            },
            "type": "div",
          },
          "type": "div",
        },
        Object {
          "instance": null,
          "key": undefined,
          "nodeType": "host",
          "props": Object {
            "children": Array [
              <div
                className="col-md-6"
              >
                <Accordion
                  entries={
                    Array [
                      Object {
                        "content": <div>
                          <p>
                            The tickets will be given out in a lottery.
                          </p>
                          <p>
                            The registration opens on April 15th, 2019. To avoid "rush hour" traffic, all registrations (except for guaranteed sponsor slots) will end up on the waiting list, initially. It will not matter, if you register on the first day, or on the last. On May 1st, 2019 there will be a draw to distribute the slots to people on the waiting list.
                          </p>
                          <p>
                            Please note that the draw will be (pseudo) random, and we will not influence the results in any way.
                          </p>
                          <p>
                            After the draw, you will be notified, if you are in.
                          </p>
                          <p>
                            If you are not, you stay on the waiting list (as was previous practice). But don’t give up just yet: Cancellations and other issues always cause some slots to become available again, and we will draw those away at regular intervals.
                          </p>
                        </div>,
                        "title": "How it works",
                      },
                      Object {
                        "content": <div>
                          <p>
                            We offer three kinds of rooms. Please choose the rooms you'd like and tell us for how long you will be our guest. All rooms need to be booked from Thursday evening. There will be no exceptions.
                          </p>
                          <ul>
                            <li>
                              Single bed room
                            </li>
                            <li>
                              Double bed room, can only be shared
                            </li>
                            <li>
                              Junior double bed room (one bed, 160 cm x 200 cm), can be shared or occupied exclusively
                            </li>
                          </ul>
                          <p>
                            If you stay at least until Sunday evening, we assume that you want to participate in the Coderetreat or in one of the workshops on Sunday.
                          </p>
                          <p>
                            All prices are per person and include:
                          </p>
                          <ul>
                            <li>
                              participation in the SoCraTes conference (including the Sunday Coderetreat or workshop, if you like) 
                            </li>
                            <li>
                              the hotel room
                            </li>
                            <li>
                              meals, snacks and coffee
                            </li>
                          </ul>
                          <p>
                            The final prices depend on our sponsors and may be slightly lower than announced here.
                          </p>
                        </div>,
                        "title": "Room Options",
                      },
                      Object {
                        "content": <div>
                          <p>
                            You can select as many rooms as you like.
                          </p>
                          <p>
                            If you select more than one room this means you are happy with any of the rooms you selected. We will move you to one of the rooms, as they become available.
                          </p>
                          <p>
                            Generally speaking: The more room options you select, the better your chances are to get a spot.
                          </p>
                          <p>
                            Please be aware that we will move you to the next available room without checking back with you first. So please select only those rooms you are happy with!
                          </p>
                        </div>,
                        "title": "Room Choice",
                      },
                    ]
                  }
                  parentId="registration-accordion"
                />
              </div>,
              <div
                className="col-md-6"
              >
                <Accordion
                  entries={
                    Array [
                      Object {
                        "content": <div>
                          <p>
                            You will pay the full amount (as given below) to the venue on checkout, and you will receive an invoice from the venue.
                          </p>
                          <p>
                            The final amount will include food, group rooms and free non-alcoholic drinks, plus the hotel service fee for the conference - at most 202,50€, if you stay from Thursday until Sunday (all of which will be covered by sponsoring money, if possible) - as well as your hotel room (see pricing table below).
                          </p>
                          <p>
                            To give you an example: The price for a single room for all 3 nights will be somewhere between roughly 200€ and 400€, with a high likelihood of being closer to the lower end.
                          </p>
                          <table
                            className="pricing"
                          >
                            <thead>
                              <tr>
                                <th>
                                  Room type
                                </th>
                                <th>
                                  Price p. person/night
                                </th>
                              </tr>
                            </thead>
                            <tbody>
                              <tr>
                                <td>
                                  Single
                                </td>
                                <td
                                  className="numeric"
                                >
                                  62,50€
                                </td>
                              </tr>
                              <tr>
                                <td>
                                  Junior Double (exclusively)
                                </td>
                                <td
                                  className="numeric"
                                >
                                  62,50€
                                </td>
                              </tr>
                              <tr>
                                <td>
                                  Double (shared)
                                </td>
                                <td
                                  className="numeric"
                                >
                                  47,95€
                                </td>
                              </tr>
                              <tr>
                                <td>
                                  Junior Double (shared)
                                </td>
                                <td
                                  className="numeric"
                                >
                                  45,45€
                                </td>
                              </tr>
                            </tbody>
                          </table>
                        </div>,
                        "title": "Payment and Invoice",
                      },
                      Object {
                        "content": <div>
                          <p>
                            Some of you have booked a spot in a double shared, or junior shared room. Now is the time to specify your desired roommate. Please do so as soon as possible.
                          </p>
                          <p>
                            All those who do not choose a roommate until the end of July 2019 will be assigned one. We will usually fill the spot with someone matching your own gender, unless you told us to do otherwise, and of course providing enough matching pairs exist. However the draw turns out, though, we want you to be sure that there is no way we will force you to share the room with someone you dislike or have doubts about - please contact us, if this should be the case, and we will try our best to find a mutually agreeable solution.
                          </p>
                          <p>
                            Please verify the duration of your stay. If anything needs to be changed, send an email to registration@socrates-conference.de, along with your desired changes.
                          </p>
                          <p>
                            To book until Sunday evening means participation in the workshops or code retreat - as sponsorship money is being used to make this possible, please be fair and do not unnecessarily specify the Sunday evening, unless you want to participate in these activities.
                          </p>
                          <p>
                            Specify the correct size of your SoCraTes t-shirt in your profile. Check and change this setting, if necessary. If you don’t want a t-shirt, please select the “no shirt” option.
                          </p>
                          <p>
                            Also check your home and billing addresses in the profile page. Also, you may tell us about your food preferences / dietary restrictions, whether you have any special needs, or any other information you want to share with us.
                          </p>
                          <p>
                            Please make sure that your profile fields are up to date.
                          </p>
                        </div>,
                        "title": "I won the lottery, what now?",
                      },
                    ]
                  }
                  parentId="registration-accordion"
                  startIndex={3}
                />
              </div>,
            ],
            "className": "row",
            "id": "registration-accordion",
          },
          "ref": null,
          "rendered": Array [
            Object {
              "instance": null,
              "key": undefined,
              "nodeType": "host",
              "props": Object {
                "children": <Accordion
                  entries={
                    Array [
                      Object {
                        "content": <div>
                          <p>
                            The tickets will be given out in a lottery.
                          </p>
                          <p>
                            The registration opens on April 15th, 2019. To avoid "rush hour" traffic, all registrations (except for guaranteed sponsor slots) will end up on the waiting list, initially. It will not matter, if you register on the first day, or on the last. On May 1st, 2019 there will be a draw to distribute the slots to people on the waiting list.
                          </p>
                          <p>
                            Please note that the draw will be (pseudo) random, and we will not influence the results in any way.
                          </p>
                          <p>
                            After the draw, you will be notified, if you are in.
                          </p>
                          <p>
                            If you are not, you stay on the waiting list (as was previous practice). But don’t give up just yet: Cancellations and other issues always cause some slots to become available again, and we will draw those away at regular intervals.
                          </p>
                        </div>,
                        "title": "How it works",
                      },
                      Object {
                        "content": <div>
                          <p>
                            We offer three kinds of rooms. Please choose the rooms you'd like and tell us for how long you will be our guest. All rooms need to be booked from Thursday evening. There will be no exceptions.
                          </p>
                          <ul>
                            <li>
                              Single bed room
                            </li>
                            <li>
                              Double bed room, can only be shared
                            </li>
                            <li>
                              Junior double bed room (one bed, 160 cm x 200 cm), can be shared or occupied exclusively
                            </li>
                          </ul>
                          <p>
                            If you stay at least until Sunday evening, we assume that you want to participate in the Coderetreat or in one of the workshops on Sunday.
                          </p>
                          <p>
                            All prices are per person and include:
                          </p>
                          <ul>
                            <li>
                              participation in the SoCraTes conference (including the Sunday Coderetreat or workshop, if you like) 
                            </li>
                            <li>
                              the hotel room
                            </li>
                            <li>
                              meals, snacks and coffee
                            </li>
                          </ul>
                          <p>
                            The final prices depend on our sponsors and may be slightly lower than announced here.
                          </p>
                        </div>,
                        "title": "Room Options",
                      },
                      Object {
                        "content": <div>
                          <p>
                            You can select as many rooms as you like.
                          </p>
                          <p>
                            If you select more than one room this means you are happy with any of the rooms you selected. We will move you to one of the rooms, as they become available.
                          </p>
                          <p>
                            Generally speaking: The more room options you select, the better your chances are to get a spot.
                          </p>
                          <p>
                            Please be aware that we will move you to the next available room without checking back with you first. So please select only those rooms you are happy with!
                          </p>
                        </div>,
                        "title": "Room Choice",
                      },
                    ]
                  }
                  parentId="registration-accordion"
                />,
                "className": "col-md-6",
              },
              "ref": null,
              "rendered": Object {
                "instance": null,
                "key": undefined,
                "nodeType": "function",
                "props": Object {
                  "entries": Array [
                    Object {
                      "content": <div>
                        <p>
                          The tickets will be given out in a lottery.
                        </p>
                        <p>
                          The registration opens on April 15th, 2019. To avoid "rush hour" traffic, all registrations (except for guaranteed sponsor slots) will end up on the waiting list, initially. It will not matter, if you register on the first day, or on the last. On May 1st, 2019 there will be a draw to distribute the slots to people on the waiting list.
                        </p>
                        <p>
                          Please note that the draw will be (pseudo) random, and we will not influence the results in any way.
                        </p>
                        <p>
                          After the draw, you will be notified, if you are in.
                        </p>
                        <p>
                          If you are not, you stay on the waiting list (as was previous practice). But don’t give up just yet: Cancellations and other issues always cause some slots to become available again, and we will draw those away at regular intervals.
                        </p>
                      </div>,
                      "title": "How it works",
                    },
                    Object {
                      "content": <div>
                        <p>
                          We offer three kinds of rooms. Please choose the rooms you'd like and tell us for how long you will be our guest. All rooms need to be booked from Thursday evening. There will be no exceptions.
                        </p>
                        <ul>
                          <li>
                            Single bed room
                          </li>
                          <li>
                            Double bed room, can only be shared
                          </li>
                          <li>
                            Junior double bed room (one bed, 160 cm x 200 cm), can be shared or occupied exclusively
                          </li>
                        </ul>
                        <p>
                          If you stay at least until Sunday evening, we assume that you want to participate in the Coderetreat or in one of the workshops on Sunday.
                        </p>
                        <p>
                          All prices are per person and include:
                        </p>
                        <ul>
                          <li>
                            participation in the SoCraTes conference (including the Sunday Coderetreat or workshop, if you like) 
                          </li>
                          <li>
                            the hotel room
                          </li>
                          <li>
                            meals, snacks and coffee
                          </li>
                        </ul>
                        <p>
                          The final prices depend on our sponsors and may be slightly lower than announced here.
                        </p>
                      </div>,
                      "title": "Room Options",
                    },
                    Object {
                      "content": <div>
                        <p>
                          You can select as many rooms as you like.
                        </p>
                        <p>
                          If you select more than one room this means you are happy with any of the rooms you selected. We will move you to one of the rooms, as they become available.
                        </p>
                        <p>
                          Generally speaking: The more room options you select, the better your chances are to get a spot.
                        </p>
                        <p>
                          Please be aware that we will move you to the next available room without checking back with you first. So please select only those rooms you are happy with!
                        </p>
                      </div>,
                      "title": "Room Choice",
                    },
                  ],
                  "parentId": "registration-accordion",
                },
                "ref": null,
                "rendered": null,
                "type": [Function],
              },
              "type": "div",
            },
            Object {
              "instance": null,
              "key": undefined,
              "nodeType": "host",
              "props": Object {
                "children": <Accordion
                  entries={
                    Array [
                      Object {
                        "content": <div>
                          <p>
                            You will pay the full amount (as given below) to the venue on checkout, and you will receive an invoice from the venue.
                          </p>
                          <p>
                            The final amount will include food, group rooms and free non-alcoholic drinks, plus the hotel service fee for the conference - at most 202,50€, if you stay from Thursday until Sunday (all of which will be covered by sponsoring money, if possible) - as well as your hotel room (see pricing table below).
                          </p>
                          <p>
                            To give you an example: The price for a single room for all 3 nights will be somewhere between roughly 200€ and 400€, with a high likelihood of being closer to the lower end.
                          </p>
                          <table
                            className="pricing"
                          >
                            <thead>
                              <tr>
                                <th>
                                  Room type
                                </th>
                                <th>
                                  Price p. person/night
                                </th>
                              </tr>
                            </thead>
                            <tbody>
                              <tr>
                                <td>
                                  Single
                                </td>
                                <td
                                  className="numeric"
                                >
                                  62,50€
                                </td>
                              </tr>
                              <tr>
                                <td>
                                  Junior Double (exclusively)
                                </td>
                                <td
                                  className="numeric"
                                >
                                  62,50€
                                </td>
                              </tr>
                              <tr>
                                <td>
                                  Double (shared)
                                </td>
                                <td
                                  className="numeric"
                                >
                                  47,95€
                                </td>
                              </tr>
                              <tr>
                                <td>
                                  Junior Double (shared)
                                </td>
                                <td
                                  className="numeric"
                                >
                                  45,45€
                                </td>
                              </tr>
                            </tbody>
                          </table>
                        </div>,
                        "title": "Payment and Invoice",
                      },
                      Object {
                        "content": <div>
                          <p>
                            Some of you have booked a spot in a double shared, or junior shared room. Now is the time to specify your desired roommate. Please do so as soon as possible.
                          </p>
                          <p>
                            All those who do not choose a roommate until the end of July 2019 will be assigned one. We will usually fill the spot with someone matching your own gender, unless you told us to do otherwise, and of course providing enough matching pairs exist. However the draw turns out, though, we want you to be sure that there is no way we will force you to share the room with someone you dislike or have doubts about - please contact us, if this should be the case, and we will try our best to find a mutually agreeable solution.
                          </p>
                          <p>
                            Please verify the duration of your stay. If anything needs to be changed, send an email to registration@socrates-conference.de, along with your desired changes.
                          </p>
                          <p>
                            To book until Sunday evening means participation in the workshops or code retreat - as sponsorship money is being used to make this possible, please be fair and do not unnecessarily specify the Sunday evening, unless you want to participate in these activities.
                          </p>
                          <p>
                            Specify the correct size of your SoCraTes t-shirt in your profile. Check and change this setting, if necessary. If you don’t want a t-shirt, please select the “no shirt” option.
                          </p>
                          <p>
                            Also check your home and billing addresses in the profile page. Also, you may tell us about your food preferences / dietary restrictions, whether you have any special needs, or any other information you want to share with us.
                          </p>
                          <p>
                            Please make sure that your profile fields are up to date.
                          </p>
                        </div>,
                        "title": "I won the lottery, what now?",
                      },
                    ]
                  }
                  parentId="registration-accordion"
                  startIndex={3}
                />,
                "className": "col-md-6",
              },
              "ref": null,
              "rendered": Object {
                "instance": null,
                "key": undefined,
                "nodeType": "function",
                "props": Object {
                  "entries": Array [
                    Object {
                      "content": <div>
                        <p>
                          You will pay the full amount (as given below) to the venue on checkout, and you will receive an invoice from the venue.
                        </p>
                        <p>
                          The final amount will include food, group rooms and free non-alcoholic drinks, plus the hotel service fee for the conference - at most 202,50€, if you stay from Thursday until Sunday (all of which will be covered by sponsoring money, if possible) - as well as your hotel room (see pricing table below).
                        </p>
                        <p>
                          To give you an example: The price for a single room for all 3 nights will be somewhere between roughly 200€ and 400€, with a high likelihood of being closer to the lower end.
                        </p>
                        <table
                          className="pricing"
                        >
                          <thead>
                            <tr>
                              <th>
                                Room type
                              </th>
                              <th>
                                Price p. person/night
                              </th>
                            </tr>
                          </thead>
                          <tbody>
                            <tr>
                              <td>
                                Single
                              </td>
                              <td
                                className="numeric"
                              >
                                62,50€
                              </td>
                            </tr>
                            <tr>
                              <td>
                                Junior Double (exclusively)
                              </td>
                              <td
                                className="numeric"
                              >
                                62,50€
                              </td>
                            </tr>
                            <tr>
                              <td>
                                Double (shared)
                              </td>
                              <td
                                className="numeric"
                              >
                                47,95€
                              </td>
                            </tr>
                            <tr>
                              <td>
                                Junior Double (shared)
                              </td>
                              <td
                                className="numeric"
                              >
                                45,45€
                              </td>
                            </tr>
                          </tbody>
                        </table>
                      </div>,
                      "title": "Payment and Invoice",
                    },
                    Object {
                      "content": <div>
                        <p>
                          Some of you have booked a spot in a double shared, or junior shared room. Now is the time to specify your desired roommate. Please do so as soon as possible.
                        </p>
                        <p>
                          All those who do not choose a roommate until the end of July 2019 will be assigned one. We will usually fill the spot with someone matching your own gender, unless you told us to do otherwise, and of course providing enough matching pairs exist. However the draw turns out, though, we want you to be sure that there is no way we will force you to share the room with someone you dislike or have doubts about - please contact us, if this should be the case, and we will try our best to find a mutually agreeable solution.
                        </p>
                        <p>
                          Please verify the duration of your stay. If anything needs to be changed, send an email to registration@socrates-conference.de, along with your desired changes.
                        </p>
                        <p>
                          To book until Sunday evening means participation in the workshops or code retreat - as sponsorship money is being used to make this possible, please be fair and do not unnecessarily specify the Sunday evening, unless you want to participate in these activities.
                        </p>
                        <p>
                          Specify the correct size of your SoCraTes t-shirt in your profile. Check and change this setting, if necessary. If you don’t want a t-shirt, please select the “no shirt” option.
                        </p>
                        <p>
                          Also check your home and billing addresses in the profile page. Also, you may tell us about your food preferences / dietary restrictions, whether you have any special needs, or any other information you want to share with us.
                        </p>
                        <p>
                          Please make sure that your profile fields are up to date.
                        </p>
                      </div>,
                      "title": "I won the lottery, what now?",
                    },
                  ],
                  "parentId": "registration-accordion",
                  "startIndex": 3,
                },
                "ref": null,
                "rendered": null,
                "type": [Function],
              },
              "type": "div",
            },
          ],
          "type": "div",
        },
      ],
      "type": "div",
    },
  ],
  Symbol(enzyme.__options__): Object {
    "adapter": ReactSixteenAdapter {
      "options": Object {
        "enableComponentDidUpdateOnSetState": true,
      },
    },
  },
}
`;
